%YAML 1.1
%TAG !u! tag:unity3d.com,2011:
--- !u!687078895 &4343727234628468602
SpriteAtlas:
  m_ObjectHideFlags: 0
  m_CorrespondingSourceObject: {fileID: 0}
  m_PrefabInstance: {fileID: 0}
  m_PrefabAsset: {fileID: 0}
  m_Name: UIAtlas
  m_EditorData:
    serializedVersion: 2
    textureSettings:
      serializedVersion: 2
      anisoLevel: 1
      compressionQuality: 50
      maxTextureSize: 2048
      textureCompression: 0
      filterMode: 1
      generateMipMaps: 0
      readable: 0
      crunchedCompression: 0
      sRGB: 1
    platformSettings:
    - serializedVersion: 3
      m_BuildTarget: Android
      m_MaxTextureSize: 2048
      m_ResizeAlgorithm: 0
      m_TextureFormat: 47
      m_TextureCompression: 1
      m_CompressionQuality: 50
      m_CrunchedCompression: 0
      m_AllowsAlphaSplitting: 0
      m_Overridden: 1
      m_AndroidETC2FallbackOverride: 0
      m_ForceMaximumCompressionQuality_BC6H_BC7: 0
    packingSettings:
      serializedVersion: 2
      padding: 4
      blockOffset: 1
      allowAlphaSplitting: 0
      enableRotation: 0
      enableTightPacking: 0
    variantMultiplier: 1
    packables:
    - {fileID: 102900000, guid: fed56bad3d48c4e54b3fd5c7d690b5e4, type: 3}
    totalSpriteSurfaceArea: 1583424
    bindAsDefault: 1
  m_MasterAtlas: {fileID: 0}
  m_PackedSprites:
  - {fileID: 21300000, guid: bc4a5990cdbd14bacaf5809aee0266c2, type: 3}
  - {fileID: 21300000, guid: af38785243677495689df593e94ee630, type: 3}
  - {fileID: 21300000, guid: 43b49b141fcf848229a3ce7ae44aa63c, type: 3}
  - {fileID: 21300000, guid: 0df06794b981a47a6a906a98369c9af0, type: 3}
  - {fileID: 21300000, guid: 96ebfb5906470486b807284e7f47c99a, type: 3}
  - {fileID: 21300000, guid: 588898f9152b04c93b26b7efa6bb1f69, type: 3}
  - {fileID: 21300000, guid: 9cc5ad1a16ee64363aaa5f3b311664f8, type: 3}
  - {fileID: 21300000, guid: 59ebc59b10e374da289333e6887cd87d, type: 3}
  - {fileID: 21300000, guid: 66f7cafb19d2e45e380b103f02843ed5, type: 3}
  - {fileID: 21300000, guid: dedd021c515984599a4111ad497fdd65, type: 3}
  - {fileID: 21300000, guid: bc9a860f6b64d47aebb39cc72c3725ea, type: 3}
  - {fileID: 21300000, guid: 046d1abfe5f0f42b4b1086355045e134, type: 3}
  m_PackedSpriteNamesToIndex:
  - button_back
  - button_music_on_disabled
  - button_music_on_selected
  - logo
  - button_settings_pressed
  - button_play_pressed
  - button_music_off_selected
  - button_play
  - button_settings
  - button_back_pressed
  - home_screen_illustration
  - button_music_off_disabled
  m_Tag: UIAtlas
  m_IsVariant: 0
